
















































[Strings]
; non-localizeable


































































LCID=041F






























LANGUAGE="EN"

;-------------
; localizeable
;--------------
