
















































[ER.install]
























































dwintl.dll,dwil1049.dll.mu_































[Strings]
; non-localizeable










































































DWLCID=1049
LCID=0419







































;-------------
; localizeable
;--------------
