
[strings]
pnpisa.SvcDesc        = "Sterownik PnP ISA Enabler"
SPSVCINST_TAGTOFRONT  = 0x00000001
SERVICE_KERNEL_DRIVER = 1
SERVICE_SYSTEM_START  = 1
SERVICE_ERROR_IGNORE  = 0
REG_EXPAND_SZ         = 0x00020000
REG_DWORD             = 0x00010001

