Microsoft (R) Help Compiler
HCRTF 4.03.0002
Copyright (c) Microsoft Corp 1990 - 1995. All rights reserved.
hmlistview.hpj
    HC1002: Note: 
	Using existing phrase table: HMListView.ph.
    HC1010: Note: 
	The following mapped Topic IDs were not used in any topic:
	HIDD_PROPPAGE_HMLISTVIEW
	HID_FILTERMENU_ENDSWITH
	HID_FILTERMENU_STARTSWITH
	HID_FILTERMENU_CONTAINS
	HID_FILTERMENU_ISEXACTLY
	HID_HEADERCONTEXT_FILTERBAR
	HID_FILTERMENU_DOESNOTCONTAIN
	HIDR_MENU_HEADER_CONTEXT
	HID_FILTERMENU_CLEARFILTER
	HID_FILTERMENU_CLEARALLFILTERS
	HID_FILTERMENU_ISNOT
3	Topics
0	Jumps
0	Keywords
1	Bitmap


Created C:\SMSDev\HealthMon\HMListView\HMListView.hlp, 6,511 bytes
Phrase+Zeck compression decreased help file by 72 bytes.
Compile time: 0 minutes, 0 seconds
2 notes, 0 warnings
