
[Strings]

;----------------
; Non-Localizable
;----------------

SERVICE_KERNEL_DRIVER=1
SERVICE_AUTO_START=2
SERVICE_ERROR_NORMAL=1

;----------------
; Localizable
;----------------

Msft="ATI"
MS="ATI"
ATIXBAR.DeviceDesc="Koordinatvelger for ATIXBar, ATI WDM-videolyd"
ATIXBAR.Crossbar="ATI-koordinatvelger"

