
;no need to localize this file. the proper UILanguageID string
;will be created by precompiler 
;LangID and Language mapping code
;0401=ara
;0404=CHT
;0405=cs
;0406=da
;0407=GER
;0408=EL
;0409=USA
;040b=FI
;040c=FR
;040d=heb
;040e=hu
;0410=IT
;0411=JPN
;0412=KOR
;0413=NL
;0414=no
;0415=pl
;0416=Br
;0419=RU
;041d=SV
;041f=tr
;0804=CHS
;0816=pt
;0c0a=ES















































UILanguageID=1044

























