































[strings]
PRINT		   = "Druckerlieferant"
PnpPrint           = "Druckerhersteller"
PRINT.DeviceDesc   = "Standarddrucker"
PRINT.SvcDesc      = "Microsoft Standarddruckerklasse SCSI/1394"
ppClassName        = "IEEE 1394- und SCSI-Drucker"
MSFT		   = "Microsoft"
