































[strings]


FUJITSU                                             = "Fujitsu"
FujitsuSafeTE.DeviceDesc                            = "Fujitsu SAF-TE-Prozessor"
FujitsuQLogic.DeviceDesc                            = "FSC Speicher-Subsystem"










SIEMENS                                             = "Siemens"
ProcessorSDR_____GEM200.DeviceDesc                  = "FSC SCSI-Abschlussmodul GEM200"
ProcessorSDR_____GEM318.DeviceDesc	            = "FSC SCSI-Abschlussmodul GEM318"
ProcessorSDR_____GEM318__________.DeviceDesc        = "FSC SCSI-Abschlussmodul GEM318"
ProcessorSDR_____.DeviceDesc	                    = "FSC SCSI-Abschlussmodul"
ProcessorSNI_____.DeviceDesc	                    = "FSC SCSI-Abschlussmodul"
ProcessorSIEMENS_.DeviceDesc	                    = "FSC SCSI-Abschlussmodul"
ProcessorSAG_____.DeviceDesc 	                    = "FSC SCSI-Abschlussmodul"
ProcessorFSC_____.DeviceDesc	                    = "FSC SCSI-Abschlussmodul"
ProcessorSIEMENS_AG.DeviceDesc	                    = "FSC SCSI-Abschlussmodul"


NEC                                                 = "NEC"
NECGEM312.DeviceDesc                                = "NEC GEM SCSI-Prozessor"
NECGEM359.DeviceDesc                                = "NEC GEM SCSI-Prozessor"

ADAPTEC                                             = "Adaptec"
SCSI\ProcessorDELL____Management______.DeviceDesc   = "Dell PERC-2-Verwaltungsgerät"
SCSI\ProcessorHP______Management______.DeviceDesc   = "HP NetRAID4-M-Verwaltungsgerät"
SCSI\ProcessorDpt_____Management______.DeviceDesc   = "DPT I2O-Verwaltungsgerät"

ESGSHV                                              = "ESG-SHV"
ESGHSBP.DeviceDesc                                  = "SCA Hotswap-Backplane"

HIGHPOINT                                           = "Highpoint"
SCSI\ProcessorHPT_____RCM_DEVICE______.DeviceDesc   = "Highpoint RCM-Gerät"

MYLEX                                               = "Mylex"
SCSI\ProcessorMYLEX___GAM_DEVICE______.DeviceDesc   = "Mylex GAM-Gerät"
SCSI\ArrayMYLEX___.DeviceDesc                       = "Mylex-Arraygerät"

AMI                                                 = "American Megatrends, Inc."
NULL.DeviceDesc                                     = "Virtuelles RAID-Gerät"
Component.DeviceDesc                                = "RAID-Controller-Komponentengerät"
AMI907Processor.DeviceDesc                          = "AMI-Prozessor der 907-Serie"

DELL                                                = "Dell"
SCSI\ProcessorDELL____6UW_BACKPLANE___.DeviceDesc   = "DELL 6 UW-Backplane"
SCSI\ProcessorDELL____1x6_U2W_SCSI_BP_.DeviceDesc   = "DELL 6 U2W-Backplane"
SCSI\ProcessorDELL____1x2_U2W_SCSI_BP_.DeviceDesc   = "DELL 2 U2W-Backplane"
SCSI\ProcessorDELL____1x3_U2W_SCSI_BP_.DeviceDesc   = "DELL 3 U2W-Backplane"
SCSI\ProcessorDELL____1x4_U2W_SCSI_BP_.DeviceDesc   = "DELL 4 U2W-Backplane"
SCSI\ProcessorDELL____2x2_U2W_SCSI_BP_.DeviceDesc   = "DELL 2 U2W-Backplane"
SCSI\ProcessorDELL____1x5_U2W_SCSI_BP_.DeviceDesc   = "DELL 5 U2W-Backplane"
SCSI\ProcessorDELL____1x8_U2W_SCSI_BP_.DeviceDesc   = "DELL 8 U2W-Backplane"
SCSI\ProcessorDELL____8_BAY_U2W_CU____.DeviceDesc   = "DELL PV20xS-Backplane"
SCSI\ProcessorDELL____12_BAY_U2W_CU___.DeviceDesc   = "DELL PV21xS-Backplane"
DellProcessor                                       = "DELL PERC 2/DC SCSI-Prozessor"
DellSCProcessor                                     = "DELL PERC 2/SC SCSI-Prozessor"
DellDCProcessor                                     = "DELL PERC 3/DC SCSI-Prozessor"
DellQCProcessor                                     = "DELL PERC 3/QC SCSI-Prozessor"

INTEL                                               = "Intel"
SCSI\ProcessorIntel___Admin_Device____.DeviceDesc   = "I2O-Verwaltungsgerät"
SCSI\ProcessorTekram__Admin_Device____.DeviceDesc   = "I2O-Verwaltungsgerät"

IBM                                                 = "IBM"
Dummy.DeviceDesc                                    = "IBM Dummy-Gerät"
CORPGEM.DeviceDesc                                  = "GEM 312 SCSI-Gerät"
IBMEXP500.DeviceDesc                                = "IBM EXP500 SCSI-Speichererweiterungsgerät"

CPQ                                                 = "Compaq"
SCSI\ArrayCOMPAQ__ARRAY_CONTROLLER.DeviceDesc       = "Compaq Fibre Channel-Datenträgergruppe"
SCSI\OtherCOMPAQ__SCSI_COMMUNICATE.DeviceDesc       = "Compaq Virtuelle LUN"
SCSI\ProcessorCompaq__CD_Storage_Sys.DeviceDesc     = "Compaq SCSI-Bus-Extender für CD-Speichersystem"
SCSI\ProcessorCOMPAQ__.DeviceDesc                   = "Compaq StorageWorks/ProLiant Speicher-Subsystem"

MDI                                                 = "MDI"
SCSI\ProcessorMDI_____SE-EXTENDER.DeviceDesc        = "MDI SCSI-Bus-Extender"

SDR                                                 = "SDR"
GEM200.DeviceDesc                                   = "GEM 200-SCSI-Gerät"

TOSHIBA                                             = "Toshiba"
MAGNIA7010.DeviceDesc                               = "DMC 7010-Prozessor"
MAGNIA5100.DeviceDesc                               = "DMC 5100-Prozessor"
MAGNIA5000.DeviceDesc                               = "DMC 5000-Prozessor"
MAGNIA7000.DeviceDesc                               = "DMC 7000-Prozessor"
MAGNIADMC21.DeviceDesc                              = "DMC 2.1-Prozessor"
MAGNIADMC20.DeviceDesc                              = "DMC 2.0-Prozessor"
MAGNIA3000.DeviceDesc                               = "SMC 3000-Prozessor"
MAGNIA3010.DeviceDesc                               = "SMC 3010-Prozessor"


HITACHI                                             = "Hitachi"
SMP0001.DeviceDesc                                  = "SMP-Prozessor"

HP                                                  = "HP"
HPD4902.DeviceDesc                                  = "HP D4902 SCSI-Prozessor"
HPSAFETE.DeviceDesc                                 = "HP SAFETE SCSI-Prozessor"
HPSAFTE.DeviceDesc	                            = "HP SAF-TE SCSI-Prozessor"


MSFT                                                = "Microsoft"
Processor.DeviceDesc                                = "SCSI-Prozessor"

;*******************************************
;Handy macro substitutions (non-localizable)
SPSVCINST_ASSOCSERVICE = 0x00000002

