const static DOUBLE sigmoid[] = 
{
0.000045,0.000046,0.000046,0.000047,0.000047,0.000048,0.000048,0.000049,0.000049,0.000050,0.000050,0.000051,0.000051,0.000052,0.000052,0.000053,0.000053,0.000054,0.000054,0.000055,
0.000055,0.000056,0.000057,0.000057,0.000058,0.000058,0.000059,0.000059,0.000060,0.000061,0.000061,0.000062,0.000063,0.000063,0.000064,0.000064,0.000065,0.000066,0.000066,0.000067,
0.000068,0.000068,0.000069,0.000070,0.000070,0.000071,0.000072,0.000073,0.000073,0.000074,0.000075,0.000076,0.000076,0.000077,0.000078,0.000079,0.000079,0.000080,0.000081,0.000082,
0.000083,0.000084,0.000084,0.000085,0.000086,0.000087,0.000088,0.000089,0.000090,0.000091,0.000091,0.000092,0.000093,0.000094,0.000095,0.000096,0.000097,0.000098,0.000099,0.000100,
0.000101,0.000102,0.000103,0.000104,0.000105,0.000106,0.000107,0.000108,0.000109,0.000111,0.000112,0.000113,0.000114,0.000115,0.000116,0.000117,0.000119,0.000120,0.000121,0.000122,
0.000123,0.000125,0.000126,0.000127,0.000128,0.000130,0.000131,0.000132,0.000134,0.000135,0.000136,0.000138,0.000139,0.000141,0.000142,0.000143,0.000145,0.000146,0.000148,0.000149,
0.000151,0.000152,0.000154,0.000155,0.000157,0.000158,0.000160,0.000162,0.000163,0.000165,0.000167,0.000168,0.000170,0.000172,0.000173,0.000175,0.000177,0.000179,0.000180,0.000182,
0.000184,0.000186,0.000188,0.000190,0.000192,0.000194,0.000195,0.000197,0.000199,0.000201,0.000203,0.000205,0.000208,0.000210,0.000212,0.000214,0.000216,0.000218,0.000220,0.000223,
0.000225,0.000227,0.000229,0.000232,0.000234,0.000236,0.000239,0.000241,0.000244,0.000246,0.000248,0.000251,0.000253,0.000256,0.000259,0.000261,0.000264,0.000266,0.000269,0.000272,
0.000275,0.000277,0.000280,0.000283,0.000286,0.000289,0.000292,0.000294,0.000297,0.000300,0.000303,0.000306,0.000310,0.000313,0.000316,0.000319,0.000322,0.000325,0.000329,0.000332,
0.000335,0.000339,0.000342,0.000346,0.000349,0.000353,0.000356,0.000360,0.000363,0.000367,0.000371,0.000374,0.000378,0.000382,0.000386,0.000390,0.000394,0.000397,0.000401,0.000405,
0.000410,0.000414,0.000418,0.000422,0.000426,0.000431,0.000435,0.000439,0.000444,0.000448,0.000453,0.000457,0.000462,0.000466,0.000471,0.000476,0.000481,0.000485,0.000490,0.000495,
0.000500,0.000505,0.000510,0.000515,0.000521,0.000526,0.000531,0.000536,0.000542,0.000547,0.000553,0.000558,0.000564,0.000570,0.000575,0.000581,0.000587,0.000593,0.000599,0.000605,
0.000611,0.000617,0.000623,0.000629,0.000636,0.000642,0.000649,0.000655,0.000662,0.000668,0.000675,0.000682,0.000689,0.000696,0.000703,0.000710,0.000717,0.000724,0.000731,0.000739,
0.000746,0.000754,0.000761,0.000769,0.000776,0.000784,0.000792,0.000800,0.000808,0.000816,0.000824,0.000833,0.000841,0.000850,0.000858,0.000867,0.000875,0.000884,0.000893,0.000902,
0.000911,0.000920,0.000929,0.000939,0.000948,0.000958,0.000967,0.000977,0.000987,0.000997,0.001007,0.001017,0.001027,0.001037,0.001048,0.001058,0.001069,0.001080,0.001091,0.001101,
0.001113,0.001124,0.001135,0.001146,0.001158,0.001170,0.001181,0.001193,0.001205,0.001217,0.001229,0.001242,0.001254,0.001267,0.001280,0.001292,0.001305,0.001318,0.001332,0.001345,
0.001359,0.001372,0.001386,0.001400,0.001414,0.001428,0.001442,0.001457,0.001472,0.001486,0.001501,0.001516,0.001531,0.001547,0.001562,0.001578,0.001594,0.001610,0.001626,0.001642,
0.001659,0.001675,0.001692,0.001709,0.001726,0.001744,0.001761,0.001779,0.001797,0.001815,0.001833,0.001851,0.001870,0.001889,0.001908,0.001927,0.001946,0.001966,0.001985,0.002005,
0.002025,0.002046,0.002066,0.002087,0.002108,0.002129,0.002150,0.002172,0.002194,0.002216,0.002238,0.002260,0.002283,0.002306,0.002329,0.002352,0.002376,0.002400,0.002424,0.002448,
0.002473,0.002497,0.002522,0.002548,0.002573,0.002599,0.002625,0.002651,0.002678,0.002705,0.002732,0.002759,0.002787,0.002815,0.002843,0.002872,0.002900,0.002929,0.002959,0.002988,
0.003018,0.003049,0.003079,0.003110,0.003141,0.003173,0.003204,0.003237,0.003269,0.003302,0.003335,0.003368,0.003402,0.003436,0.003470,0.003505,0.003540,0.003576,0.003612,0.003648,
0.003684,0.003721,0.003758,0.003796,0.003834,0.003872,0.003911,0.003950,0.003990,0.004030,0.004070,0.004111,0.004152,0.004194,0.004236,0.004278,0.004321,0.004364,0.004408,0.004452,
0.004496,0.004541,0.004587,0.004633,0.004679,0.004726,0.004773,0.004821,0.004869,0.004918,0.004967,0.005016,0.005067,0.005117,0.005168,0.005220,0.005272,0.005325,0.005378,0.005432,
0.005486,0.005541,0.005597,0.005652,0.005709,0.005766,0.005824,0.005882,0.005941,0.006000,0.006060,0.006120,0.006181,0.006243,0.006306,0.006369,0.006432,0.006496,0.006561,0.006627,
0.006693,0.006760,0.006827,0.006895,0.006964,0.007034,0.007104,0.007175,0.007246,0.007319,0.007392,0.007465,0.007540,0.007615,0.007691,0.007768,0.007845,0.007923,0.008002,0.008082,
0.008163,0.008244,0.008326,0.008409,0.008493,0.008577,0.008663,0.008749,0.008836,0.008924,0.009013,0.009103,0.009194,0.009285,0.009378,0.009471,0.009565,0.009661,0.009757,0.009850,
0.009952,0.010051,0.010151,0.010252,0.010354,0.010457,0.010561,0.010666,0.010772,0.010879,0.010987,0.011096,0.011206,0.011318,0.011430,0.011544,0.011658,0.011774,0.011891,0.012009,
0.012128,0.012249,0.012370,0.012493,0.012617,0.012742,0.012869,0.012996,0.013125,0.013255,0.013387,0.013520,0.013654,0.013789,0.013926,0.014064,0.014203,0.014344,0.014486,0.014629,
0.014774,0.014920,0.015068,0.015217,0.015368,0.015520,0.015673,0.015828,0.015985,0.016143,0.016302,0.016464,0.016626,0.016791,0.016957,0.017124,0.017293,0.017464,0.017636,0.017810,
0.017986,0.018164,0.018343,0.018524,0.018707,0.018891,0.019077,0.019265,0.019455,0.019647,0.019840,0.020036,0.020233,0.020432,0.020633,0.020836,0.021041,0.021248,0.021457,0.021668,
0.021881,0.022096,0.022313,0.022533,0.022754,0.022977,0.023203,0.023431,0.023661,0.023893,0.024127,0.024364,0.024602,0.024844,0.025087,0.025333,0.025581,0.025831,0.026084,0.026339,
0.026597,0.026857,0.027120,0.027385,0.027652,0.027923,0.028195,0.028471,0.028748,0.029029,0.029312,0.029598,0.029887,0.030178,0.030472,0.030769,0.031068,0.031371,0.031676,0.031984,
0.032295,0.032609,0.032926,0.033246,0.033569,0.033895,0.034224,0.034556,0.034891,0.035230,0.035571,0.035916,0.036264,0.036615,0.036969,0.037327,0.037688,0.038052,0.038420,0.038791,
0.039166,0.039544,0.039925,0.040310,0.040699,0.041091,0.041487,0.041887,0.042290,0.042697,0.043107,0.043522,0.043940,0.044362,0.044788,0.045217,0.045651,0.046089,0.046530,0.046976,
0.047426,0.047880,0.048338,0.048800,0.049266,0.049737,0.050211,0.050690,0.051174,0.051661,0.052154,0.052650,0.053151,0.053657,0.054167,0.054681,0.055201,0.055724,0.056253,0.056786,
0.057324,0.057867,0.058415,0.058967,0.059524,0.060087,0.060654,0.061226,0.061803,0.062386,0.062973,0.063566,0.064164,0.064767,0.065375,0.065989,0.066608,0.067232,0.067862,0.068498,
0.069138,0.069785,0.070437,0.071094,0.071758,0.072426,0.073101,0.073782,0.074468,0.075160,0.075858,0.076562,0.077272,0.077988,0.078710,0.079439,0.080173,0.080913,0.081660,0.082413,
0.083173,0.083938,0.084711,0.085489,0.086274,0.087066,0.087864,0.088669,0.089480,0.090298,0.091123,0.091955,0.092793,0.093638,0.094490,0.095349,0.096216,0.097089,0.097969,0.098856,
0.099750,0.100652,0.101561,0.102477,0.103400,0.104331,0.105269,0.106215,0.107168,0.108129,0.109097,0.110073,0.111056,0.112047,0.113046,0.114052,0.115067,0.116089,0.117119,0.118157,
0.119203,0.120257,0.121319,0.122389,0.123467,0.124553,0.125648,0.126751,0.127862,0.128981,0.130108,0.131244,0.132389,0.133542,0.134703,0.135873,0.137051,0.138238,0.139434,0.140638,
0.141851,0.143073,0.144303,0.145542,0.146790,0.148047,0.149313,0.150588,0.151871,0.153164,0.154465,0.155776,0.157095,0.158424,0.159762,0.161109,0.162465,0.163830,0.165205,0.166589,
0.167982,0.169384,0.170795,0.172216,0.173647,0.175086,0.176535,0.177994,0.179462,0.180939,0.182426,0.183922,0.185427,0.186943,0.188467,0.190002,0.191545,0.193099,0.194662,0.196234,
0.197816,0.199408,0.201009,0.202620,0.204240,0.205870,0.207510,0.209159,0.210818,0.212487,0.214165,0.215853,0.217550,0.219257,0.220974,0.222700,0.224436,0.226181,0.227936,0.229701,
0.231475,0.233259,0.235052,0.236855,0.238667,0.240489,0.242320,0.244161,0.246011,0.247871,0.249740,0.251618,0.253506,0.255403,0.257309,0.259225,0.261150,0.263084,0.265027,0.266980,
0.268941,0.270912,0.272892,0.274881,0.276878,0.278885,0.280900,0.282925,0.284958,0.287000,0.289050,0.291110,0.293178,0.295254,0.297339,0.299433,0.301535,0.303645,0.305764,0.307890,
0.310026,0.312169,0.314320,0.316479,0.318646,0.320821,0.323004,0.325195,0.327393,0.329599,0.331812,0.334033,0.336261,0.338497,0.340740,0.342990,0.345247,0.347511,0.349781,0.352059,
0.354344,0.356635,0.358933,0.361237,0.363547,0.365864,0.368188,0.370517,0.372852,0.375194,0.377541,0.379894,0.382252,0.384616,0.386986,0.389361,0.391741,0.394126,0.396517,0.398912,
0.401312,0.403717,0.406127,0.408541,0.410960,0.413382,0.415809,0.418241,0.420676,0.423115,0.425557,0.428004,0.430454,0.432907,0.435364,0.437823,0.440286,0.442752,0.445221,0.447692,
0.450166,0.452642,0.455121,0.457602,0.460085,0.462570,0.465057,0.467546,0.470036,0.472528,0.475021,0.477515,0.480011,0.482507,0.485004,0.487503,0.490001,0.492501,0.495000,0.497500,
0.500000,0.502500,0.505000,0.507499,0.509999,0.512497,0.514996,0.517493,0.519989,0.522485,0.524979,0.527472,0.529964,0.532454,0.534943,0.537430,0.539915,0.542398,0.544879,0.547358,
0.549834,0.552308,0.554779,0.557248,0.559714,0.562177,0.564636,0.567093,0.569546,0.571996,0.574443,0.576885,0.579324,0.581759,0.584191,0.586618,0.589040,0.591459,0.593873,0.596283,
0.598688,0.601088,0.603483,0.605874,0.608259,0.610639,0.613014,0.615384,0.617748,0.620106,0.622459,0.624806,0.627148,0.629483,0.631812,0.634136,0.636453,0.638763,0.641067,0.643365,
0.645656,0.647941,0.650219,0.652489,0.654753,0.657010,0.659260,0.661503,0.663739,0.665967,0.668188,0.670401,0.672607,0.674805,0.676996,0.679179,0.681354,0.683521,0.685680,0.687831,
0.689974,0.692110,0.694236,0.696355,0.698465,0.700567,0.702661,0.704746,0.706822,0.708890,0.710950,0.713000,0.715042,0.717075,0.719100,0.721115,0.723122,0.725119,0.727108,0.729088,
0.731059,0.733020,0.734973,0.736916,0.738850,0.740775,0.742691,0.744597,0.746494,0.748382,0.750260,0.752129,0.753989,0.755839,0.757680,0.759511,0.761333,0.763145,0.764948,0.766741,
0.768525,0.770299,0.772064,0.773819,0.775564,0.777300,0.779026,0.780743,0.782450,0.784147,0.785835,0.787513,0.789182,0.790841,0.792490,0.794130,0.795760,0.797380,0.798991,0.800592,
0.802184,0.803766,0.805338,0.806901,0.808455,0.809998,0.811533,0.813057,0.814573,0.816078,0.817574,0.819061,0.820538,0.822006,0.823465,0.824914,0.826353,0.827784,0.829205,0.830616,
0.832018,0.833411,0.834795,0.836170,0.837535,0.838891,0.840238,0.841576,0.842905,0.844224,0.845535,0.846836,0.848129,0.849412,0.850687,0.851953,0.853210,0.854458,0.855697,0.856927,
0.858149,0.859362,0.860566,0.861762,0.862949,0.864127,0.865297,0.866458,0.867611,0.868756,0.869892,0.871019,0.872138,0.873249,0.874352,0.875447,0.876533,0.877611,0.878681,0.879743,
0.880797,0.881843,0.882881,0.883911,0.884933,0.885948,0.886954,0.887953,0.888944,0.889927,0.890903,0.891871,0.892832,0.893785,0.894731,0.895669,0.896600,0.897523,0.898439,0.899348,
0.900250,0.901144,0.902031,0.902911,0.903784,0.904651,0.905510,0.906362,0.907207,0.908045,0.908877,0.909702,0.910520,0.911331,0.912136,0.912934,0.913726,0.914511,0.915289,0.916062,
0.916827,0.917587,0.918340,0.919087,0.919827,0.920561,0.921290,0.922012,0.922728,0.923438,0.924142,0.924840,0.925532,0.926218,0.926899,0.927574,0.928242,0.928906,0.929563,0.930215,
0.930862,0.931502,0.932138,0.932768,0.933392,0.934011,0.934625,0.935233,0.935836,0.936434,0.937027,0.937614,0.938197,0.938774,0.939346,0.939913,0.940476,0.941033,0.941585,0.942133,
0.942676,0.943214,0.943747,0.944276,0.944799,0.945319,0.945833,0.946343,0.946849,0.947350,0.947846,0.948339,0.948826,0.949310,0.949789,0.950263,0.950734,0.951200,0.951662,0.952120,
0.952574,0.953024,0.953470,0.953911,0.954349,0.954783,0.955212,0.955638,0.956060,0.956478,0.956893,0.957303,0.957710,0.958113,0.958513,0.958909,0.959301,0.959690,0.960075,0.960456,
0.960834,0.961209,0.961580,0.961948,0.962312,0.962673,0.963031,0.963385,0.963736,0.964084,0.964429,0.964770,0.965109,0.965444,0.965776,0.966105,0.966431,0.966754,0.967074,0.967391,
0.967705,0.968016,0.968324,0.968629,0.968932,0.969231,0.969528,0.969822,0.970113,0.970402,0.970688,0.970971,0.971252,0.971529,0.971805,0.972077,0.972348,0.972615,0.972880,0.973143,
0.973403,0.973661,0.973916,0.974169,0.974419,0.974667,0.974913,0.975156,0.975398,0.975636,0.975873,0.976107,0.976339,0.976569,0.976797,0.977023,0.977246,0.977467,0.977687,0.977904,
0.978119,0.978332,0.978543,0.978752,0.978959,0.979164,0.979367,0.979568,0.979767,0.979964,0.980160,0.980353,0.980545,0.980735,0.980923,0.981109,0.981293,0.981476,0.981657,0.981836,
0.982014,0.982190,0.982364,0.982536,0.982707,0.982876,0.983043,0.983209,0.983374,0.983536,0.983698,0.983857,0.984015,0.984172,0.984327,0.984480,0.984632,0.984783,0.984932,0.985080,
0.985226,0.985371,0.985514,0.985656,0.985797,0.985936,0.986074,0.986211,0.986346,0.986480,0.986613,0.986745,0.986875,0.987004,0.987131,0.987258,0.987383,0.987507,0.987630,0.987751,
0.987872,0.987991,0.988109,0.988226,0.988342,0.988456,0.988570,0.988682,0.988794,0.988904,0.989013,0.989121,0.989228,0.989334,0.989439,0.989543,0.989646,0.989748,0.989849,0.989949,
0.990048,0.990146,0.990243,0.990339,0.990435,0.990529,0.990622,0.990715,0.990806,0.990897,0.990987,0.991076,0.991164,0.991251,0.991337,0.991423,0.991507,0.991591,0.991674,0.991756,
0.991837,0.991918,0.991998,0.992077,0.992155,0.992232,0.992309,0.992385,0.992460,0.992535,0.992608,0.992681,0.992754,0.992825,0.992896,0.992966,0.993036,0.993105,0.993173,0.993240,
0.993307,0.993373,0.993439,0.993504,0.993568,0.993631,0.993694,0.993757,0.993819,0.993880,0.993940,0.994000,0.994059,0.994118,0.994176,0.994234,0.994291,0.994348,0.994403,0.994459,
0.994514,0.994568,0.994622,0.994675,0.994728,0.994780,0.994832,0.994883,0.994933,0.994984,0.995033,0.995082,0.995131,0.995179,0.995227,0.995274,0.995321,0.995367,0.995413,0.995459,
0.995504,0.995548,0.995592,0.995636,0.995679,0.995722,0.995764,0.995806,0.995848,0.995889,0.995930,0.995970,0.996010,0.996050,0.996089,0.996128,0.996166,0.996204,0.996242,0.996279,
0.996316,0.996352,0.996388,0.996424,0.996460,0.996495,0.996530,0.996564,0.996598,0.996632,0.996665,0.996698,0.996731,0.996763,0.996796,0.996827,0.996859,0.996890,0.996921,0.996951,
0.996982,0.997012,0.997041,0.997071,0.997100,0.997128,0.997157,0.997185,0.997213,0.997241,0.997268,0.997295,0.997322,0.997349,0.997375,0.997401,0.997427,0.997452,0.997478,0.997503,
0.997527,0.997552,0.997576,0.997600,0.997624,0.997648,0.997671,0.997694,0.997717,0.997740,0.997762,0.997784,0.997806,0.997828,0.997850,0.997871,0.997892,0.997913,0.997934,0.997954,
0.997975,0.997995,0.998015,0.998034,0.998054,0.998073,0.998092,0.998111,0.998130,0.998149,0.998167,0.998185,0.998203,0.998221,0.998239,0.998256,0.998274,0.998291,0.998308,0.998325,
0.998341,0.998358,0.998374,0.998390,0.998406,0.998422,0.998438,0.998453,0.998469,0.998484,0.998499,0.998514,0.998528,0.998543,0.998558,0.998572,0.998586,0.998600,0.998614,0.998628,
0.998641,0.998655,0.998668,0.998682,0.998695,0.998708,0.998720,0.998733,0.998746,0.998758,0.998771,0.998783,0.998795,0.998807,0.998819,0.998830,0.998842,0.998854,0.998865,0.998876,
0.998887,0.998899,0.998909,0.998920,0.998931,0.998942,0.998952,0.998963,0.998973,0.998983,0.998993,0.999003,0.999013,0.999023,0.999033,0.999042,0.999052,0.999061,0.999071,0.999080,
0.999089,0.999098,0.999107,0.999116,0.999125,0.999133,0.999142,0.999150,0.999159,0.999167,0.999176,0.999184,0.999192,0.999200,0.999208,0.999216,0.999224,0.999231,0.999239,0.999246,
0.999254,0.999261,0.999269,0.999276,0.999283,0.999290,0.999297,0.999304,0.999311,0.999318,0.999325,0.999332,0.999338,0.999345,0.999351,0.999358,0.999364,0.999371,0.999377,0.999383,
0.999389,0.999395,0.999401,0.999407,0.999413,0.999419,0.999425,0.999430,0.999436,0.999442,0.999447,0.999453,0.999458,0.999464,0.999469,0.999474,0.999479,0.999485,0.999490,0.999495,
0.999500,0.999505,0.999510,0.999515,0.999519,0.999524,0.999529,0.999534,0.999538,0.999543,0.999547,0.999552,0.999556,0.999561,0.999565,0.999569,0.999574,0.999578,0.999582,0.999586,
0.999590,0.999595,0.999599,0.999603,0.999606,0.999610,0.999614,0.999618,0.999622,0.999626,0.999629,0.999633,0.999637,0.999640,0.999644,0.999647,0.999651,0.999654,0.999658,0.999661,
0.999665,0.999668,0.999671,0.999675,0.999678,0.999681,0.999684,0.999687,0.999690,0.999694,0.999697,0.999700,0.999703,0.999706,0.999708,0.999711,0.999714,0.999717,0.999720,0.999723,
0.999725,0.999728,0.999731,0.999734,0.999736,0.999739,0.999741,0.999744,0.999747,0.999749,0.999752,0.999754,0.999756,0.999759,0.999761,0.999764,0.999766,0.999768,0.999771,0.999773,
0.999775,0.999777,0.999780,0.999782,0.999784,0.999786,0.999788,0.999790,0.999792,0.999795,0.999797,0.999799,0.999801,0.999803,0.999805,0.999806,0.999808,0.999810,0.999812,0.999814,
0.999816,0.999818,0.999820,0.999821,0.999823,0.999825,0.999827,0.999828,0.999830,0.999832,0.999833,0.999835,0.999837,0.999838,0.999840,0.999842,0.999843,0.999845,0.999846,0.999848,
0.999849,0.999851,0.999852,0.999854,0.999855,0.999857,0.999858,0.999859,0.999861,0.999862,0.999864,0.999865,0.999866,0.999868,0.999869,0.999870,0.999872,0.999873,0.999874,0.999875,
0.999877,0.999878,0.999879,0.999880,0.999881,0.999883,0.999884,0.999885,0.999886,0.999887,0.999888,0.999889,0.999891,0.999892,0.999893,0.999894,0.999895,0.999896,0.999897,0.999898,
0.999899,0.999900,0.999901,0.999902,0.999903,0.999904,0.999905,0.999906,0.999907,0.999908,0.999909,0.999909,0.999910,0.999911,0.999912,0.999913,0.999914,0.999915,0.999916,0.999916,
0.999917,0.999918,0.999919,0.999920,0.999921,0.999921,0.999922,0.999923,0.999924,0.999924,0.999925,0.999926,0.999927,0.999927,0.999928,0.999929,0.999930,0.999930,0.999931,0.999932,
0.999932,0.999933,0.999934,0.999934,0.999935,0.999936,0.999936,0.999937,0.999937,0.999938,0.999939,0.999939,0.999940,0.999941,0.999941,0.999942,0.999942,0.999943,0.999943,0.999944,
0.999945,0.999945,0.999946,0.999946,0.999947,0.999947,0.999948,0.999948,0.999949,0.999949,0.999950,0.999950,0.999951,0.999951,0.999952,0.999952,0.999953,0.999953,0.999954,0.999954
};

#if 0
////////   table-driven exp function
#ifdef _X86_
static DOUBLE exponential[] = 
#elif _MIPS_
#define EXPONENTIAL_TBL_LEN 2000
#define SMALL_EXP_TBL_LEN 180
#define RUNT_EXP_TBL_LEN  20
static FLOAT *exponential;
static FLOAT exponential1[] = 
#else
static FLOAT exponential[] = 
#endif
{
0.000045,0.000046,0.000046,0.000047,0.000047,0.000048,0.000048,0.000049,0.000049,0.000050,0.000050,0.000051,0.000051,0.000052,0.000052,0.000053,0.000053,0.000054,0.000054,0.000055,
0.000055,0.000056,0.000057,0.000057,0.000058,0.000058,0.000059,0.000059,0.000060,0.000061,0.000061,0.000062,0.000063,0.000063,0.000064,0.000064,0.000065,0.000066,0.000066,0.000067,
0.000068,0.000068,0.000069,0.000070,0.000070,0.000071,0.000072,0.000073,0.000073,0.000074,0.000075,0.000076,0.000076,0.000077,0.000078,0.000079,0.000079,0.000080,0.000081,0.000082,
0.000083,0.000084,0.000084,0.000085,0.000086,0.000087,0.000088,0.000089,0.000090,0.000091,0.000091,0.000092,0.000093,0.000094,0.000095,0.000096,0.000097,0.000098,0.000099,0.000100,
0.000101,0.000102,0.000103,0.000104,0.000105,0.000106,0.000107,0.000108,0.000109,0.000111,0.000112,0.000113,0.000114,0.000115,0.000116,0.000117,0.000119,0.000120,0.000121,0.000122,
0.000123,0.000125,0.000126,0.000127,0.000128,0.000130,0.000131,0.000132,0.000134,0.000135,0.000136,0.000138,0.000139,0.000141,0.000142,0.000143,0.000145,0.000146,0.000148,0.000149,
0.000151,0.000152,0.000154,0.000155,0.000157,0.000158,0.000160,0.000162,0.000163,0.000165,0.000167,0.000168,0.000170,0.000172,0.000173,0.000175,0.000177,0.000179,0.000180,0.000182,
0.000184,0.000186,0.000188,0.000190,0.000192,0.000194,0.000195,0.000197,0.000199,0.000201,0.000203,0.000206,0.000208,0.000210,0.000212,0.000214,0.000216,0.000218,0.000220,0.000223,
0.000225,0.000227,0.000229,0.000232,0.000234,0.000236,0.000239,0.000241,0.000244,0.000246,0.000249,0.000251,0.000254,0.000256,0.000259,0.000261,0.000264,0.000267,0.000269,0.000272

#ifdef _MIPS_
};
static FLOAT exponential2[] = {
#else
,
#endif

0.000275,0.000277,0.000280,0.000283,0.000286,0.000289,0.000292,0.000295,0.000298,0.000301,0.000304,0.000307,0.000310,0.000313,0.000316,0.000319,0.000322,0.000326,0.000329,0.000332,
0.000335,0.000339,0.000342,0.000346,0.000349,0.000353,0.000356,0.000360,0.000363,0.000367,0.000371,0.000374,0.000378,0.000382,0.000386,0.000390,0.000394,0.000398,0.000402,0.000406,
0.000410,0.000414,0.000418,0.000422,0.000426,0.000431,0.000435,0.000439,0.000444,0.000448,0.000453,0.000457,0.000462,0.000467,0.000471,0.000476,0.000481,0.000486,0.000491,0.000495,
0.000500,0.000505,0.000511,0.000516,0.000521,0.000526,0.000531,0.000537,0.000542,0.000548,0.000553,0.000559,0.000564,0.000570,0.000576,0.000581,0.000587,0.000593,0.000599,0.000605,
0.000611,0.000617,0.000624,0.000630,0.000636,0.000643,0.000649,0.000656,0.000662,0.000669,0.000676,0.000682,0.000689,0.000696,0.000703,0.000710,0.000717,0.000725,0.000732,0.000739,
0.000747,0.000754,0.000762,0.000769,0.000777,0.000785,0.000793,0.000801,0.000809,0.000817,0.000825,0.000833,0.000842,0.000850,0.000859,0.000867,0.000876,0.000885,0.000894,0.000903,
0.000912,0.000921,0.000930,0.000940,0.000949,0.000959,0.000968,0.000978,0.000988,0.000998,0.001008,0.001018,0.001028,0.001038,0.001049,0.001059,0.001070,0.001081,0.001092,0.001103,
0.001114,0.001125,0.001136,0.001148,0.001159,0.001171,0.001183,0.001195,0.001207,0.001219,0.001231,0.001243,0.001256,0.001268,0.001281,0.001294,0.001307,0.001320,0.001333,0.001347,
0.001360,0.001374,0.001388,0.001402,0.001416,0.001430,0.001444,0.001459,0.001474,0.001488,0.001503,0.001519,0.001534,0.001549,0.001565,0.001581,0.001596,0.001612,0.001629,0.001645

#ifdef _MIPS_
};
static FLOAT exponential3[] = {
#else
,
#endif

0.001662,0.001678,0.001695,0.001712,0.001729,0.001747,0.001764,0.001782,0.001800,0.001818,0.001836,0.001855,0.001873,0.001892,0.001911,0.001930,0.001950,0.001969,0.001989,0.002009,
0.002029,0.002050,0.002070,0.002091,0.002112,0.002133,0.002155,0.002177,0.002198,0.002221,0.002243,0.002265,0.002288,0.002311,0.002334,0.002358,0.002382,0.002405,0.002430,0.002454,
0.002479,0.002504,0.002529,0.002554,0.002580,0.002606,0.002632,0.002658,0.002685,0.002712,0.002739,0.002767,0.002795,0.002823,0.002851,0.002880,0.002909,0.002938,0.002968,0.002997,
0.003028,0.003058,0.003089,0.003120,0.003151,0.003183,0.003215,0.003247,0.003280,0.003313,0.003346,0.003380,0.003414,0.003448,0.003483,0.003518,0.003553,0.003589,0.003625,0.003661,
0.003698,0.003735,0.003773,0.003810,0.003849,0.003887,0.003927,0.003966,0.004006,0.004046,0.004087,0.004128,0.004169,0.004211,0.004254,0.004296,0.004339,0.004383,0.004427,0.004472,
0.004517,0.004562,0.004608,0.004654,0.004701,0.004748,0.004796,0.004844,0.004893,0.004942,0.004992,0.005042,0.005092,0.005144,0.005195,0.005248,0.005300,0.005354,0.005407,0.005462,
0.005517,0.005572,0.005628,0.005685,0.005742,0.005799,0.005858,0.005917,0.005976,0.006036,0.006097,0.006158,0.006220,0.006282,0.006346,0.006409,0.006474,0.006539,0.006605,0.006671,
0.006738,0.006806,0.006874,0.006943,0.007013,0.007083,0.007155,0.007227,0.007299,0.007372,0.007447,0.007521,0.007597,0.007673,0.007750,0.007828,0.007907,0.007987,0.008067,0.008148,
0.008230,0.008312,0.008396,0.008480,0.008566,0.008652,0.008739,0.008826,0.008915,0.009005,0.009095,0.009187,0.009279,0.009372,0.009466,0.009562,0.009658,0.009755,0.009853,0.009952

#ifdef _MIPS_
};
static FLOAT exponential4[] = {
#else
,
#endif

0.010052,0.010153,0.010255,0.010358,0.010462,0.010567,0.010673,0.010781,0.010889,0.010998,0.011109,0.011221,0.011333,0.011447,0.011562,0.011679,0.011796,0.011914,0.012034,0.012155,
0.012277,0.012401,0.012525,0.012651,0.012778,0.012907,0.013037,0.013168,0.013300,0.013434,0.013569,0.013705,0.013843,0.013982,0.014122,0.014264,0.014408,0.014552,0.014699,0.014846,
0.014996,0.015146,0.015299,0.015452,0.015608,0.015764,0.015923,0.016083,0.016245,0.016408,0.016573,0.016739,0.016907,0.017077,0.017249,0.017422,0.017597,0.017774,0.017953,0.018133,
0.018316,0.018500,0.018686,0.018873,0.019063,0.019255,0.019448,0.019644,0.019841,0.020041,0.020242,0.020445,0.020651,0.020858,0.021068,0.021280,0.021494,0.021710,0.021928,0.022148,
0.022371,0.022596,0.022823,0.023052,0.023284,0.023518,0.023754,0.023993,0.024234,0.024478,0.024724,0.024972,0.025223,0.025476,0.025733,0.025991,0.026252,0.026516,0.026783,0.027052,
0.027324,0.027598,0.027876,0.028156,0.028439,0.028725,0.029013,0.029305,0.029599,0.029897,0.030197,0.030501,0.030807,0.031117,0.031430,0.031746,0.032065,0.032387,0.032712,0.033041,
0.033373,0.033709,0.034047,0.034390,0.034735,0.035084,0.035437,0.035793,0.036153,0.036516,0.036883,0.037254,0.037628,0.038006,0.038388,0.038774,0.039164,0.039557,0.039955,0.040357,
0.040762,0.041172,0.041586,0.042004,0.042426,0.042852,0.043283,0.043718,0.044157,0.044601,0.045049,0.045502,0.045959,0.046421,0.046888,0.047359,0.047835,0.048316,0.048801,0.049292,
0.049787,0.050287,0.050793,0.051303,0.051819,0.052340,0.052866,0.053397,0.053934,0.054476,0.055023,0.055576,0.056135,0.056699,0.057269,0.057844,0.058426,0.059013,0.059606,0.060205


#ifdef _MIPS_
};
static FLOAT exponential5[] = {
#else
,
#endif

0.060810,0.061421,0.062039,0.062662,0.063292,0.063928,0.064570,0.065219,0.065875,0.066537,0.067206,0.067881,0.068563,0.069252,0.069948,0.070651,0.071361,0.072078,0.072803,0.073535,
0.074274,0.075020,0.075774,0.076536,0.077305,0.078082,0.078866,0.079659,0.080460,0.081268,0.082085,0.082910,0.083743,0.084585,0.085435,0.086294,0.087161,0.088037,0.088922,0.089815,
0.090718,0.091630,0.092551,0.093481,0.094420,0.095369,0.096328,0.097296,0.098274,0.099261,0.100259,0.101266,0.102284,0.103312,0.104350,0.105399,0.106459,0.107528,0.108609,0.109701,
0.110803,0.111917,0.113042,0.114178,0.115325,0.116484,0.117655,0.118837,0.120032,0.121238,0.122456,0.123687,0.124930,0.126186,0.127454,0.128735,0.130029,0.131336,0.132655,0.133989,
0.135335,0.136695,0.138069,0.139457,0.140858,0.142274,0.143704,0.145148,0.146607,0.148080,0.149569,0.151072,0.152590,0.154124,0.155673,0.157237,0.158817,0.160414,0.162026,0.163654,
0.165299,0.166960,0.168638,0.170333,0.172045,0.173774,0.175520,0.177284,0.179066,0.180866,0.182684,0.184520,0.186374,0.188247,0.190139,0.192050,0.193980,0.195930,0.197899,0.199888,
0.201897,0.203926,0.205975,0.208045,0.210136,0.212248,0.214381,0.216536,0.218712,0.220910,0.223130,0.225373,0.227638,0.229925,0.232236,0.234570,0.236928,0.239309,0.241714,0.244143,
0.246597,0.249075,0.251579,0.254107,0.256661,0.259240,0.261846,0.264477,0.267135,0.269820,0.272532,0.275271,0.278037,0.280832,0.283654,0.286505,0.289384,0.292293,0.295230,0.298197,
0.301194,0.304221,0.307279,0.310367,0.313486,0.316637,0.319819,0.323033,0.326280,0.329559,0.332871,0.336216,0.339596,0.343009,0.346456,0.349938,0.353455,0.357007,0.360595,0.364219


#ifdef _MIPS_
};
static FLOAT exponential6[] = {
#else
,
#endif

0.367879,0.371577,0.375311,0.379083,0.382893,0.386741,0.390628,0.394554,0.398519,0.402524,0.406570,0.410656,0.414783,0.418952,0.423162,0.427415,0.431711,0.436049,0.440432,0.444858,
0.449329,0.453845,0.458406,0.463013,0.467666,0.472367,0.477114,0.481909,0.486752,0.491644,0.496585,0.501576,0.506617,0.511709,0.516851,0.522046,0.527292,0.532592,0.537944,0.543351,
0.548812,0.554327,0.559898,0.565525,0.571209,0.576950,0.582748,0.588605,0.594521,0.600496,0.606531,0.612626,0.618783,0.625002,0.631284,0.637628,0.644036,0.650509,0.657047,0.663650,
0.670320,0.677057,0.683861,0.690734,0.697676,0.704688,0.711770,0.718924,0.726149,0.733447,0.740818,0.748264,0.755784,0.763379,0.771052,0.778801,0.786628,0.794534,0.802519,0.810584,
0.818731,0.826959,0.835270,0.843665,0.852144,0.860708,0.869358,0.878095,0.886920,0.895834,0.904837,0.913931,0.923116,0.932394,0.941765,0.951229,0.960789,0.970446,0.980199,0.990050,
1.000000,1.010050,1.020201,1.030455,1.040811,1.051271,1.061837,1.072508,1.083287,1.094174,1.105171,1.116278,1.127497,1.138828,1.150274,1.161834,1.173511,1.185305,1.197217,1.209250,
1.221403,1.233678,1.246077,1.258600,1.271249,1.284025,1.296930,1.309964,1.323130,1.336427,1.349859,1.363425,1.377128,1.390968,1.404948,1.419068,1.433329,1.447735,1.462285,1.476981,
1.491825,1.506818,1.521962,1.537258,1.552707,1.568312,1.584074,1.599994,1.616074,1.632316,1.648721,1.665291,1.682028,1.698932,1.716007,1.733253,1.750673,1.768267,1.786038,1.803988,
1.822119,1.840431,1.858928,1.877611,1.896481,1.915541,1.934792,1.954237,1.973878,1.993716,2.013753,2.033991,2.054433,2.075081,2.095936,2.117000,2.138276,2.159766,2.181472,2.203396


#ifdef _MIPS_
};
static FLOAT exponential7[] = {
#else
,
#endif

2.225541,2.247908,2.270500,2.293319,2.316367,2.339647,2.363161,2.386911,2.410900,2.435130,2.459603,2.484323,2.509290,2.534509,2.559981,2.585710,2.611696,2.637944,2.664456,2.691234,
2.718282,2.745601,2.773195,2.801066,2.829217,2.857651,2.886371,2.915379,2.944680,2.974274,3.004166,3.034358,3.064854,3.095657,3.126768,3.158193,3.189933,3.221993,3.254374,3.287081,
3.320117,3.353485,3.387188,3.421230,3.455613,3.490343,3.525421,3.560853,3.596640,3.632787,3.669297,3.706174,3.743421,3.781043,3.819044,3.857426,3.896193,3.935351,3.974902,4.014850,
4.055200,4.095955,4.137120,4.178699,4.220696,4.263115,4.305960,4.349235,4.392946,4.437096,4.481689,4.526731,4.572225,4.618177,4.664590,4.711470,4.758821,4.806648,4.854956,4.903749,
4.953032,5.002811,5.053090,5.103875,5.155170,5.206980,5.259311,5.312168,5.365556,5.419481,5.473947,5.528961,5.584528,5.640654,5.697343,5.754603,5.812437,5.870853,5.929856,5.989452,
6.049647,6.110447,6.171858,6.233887,6.296538,6.359820,6.423737,6.488296,6.553505,6.619369,6.685894,6.753089,6.820958,6.889510,6.958751,7.028688,7.099327,7.170676,7.242743,7.315534,
7.389056,7.463317,7.538325,7.614086,7.690609,7.767901,7.845970,7.924823,8.004469,8.084915,8.166170,8.248241,8.331137,8.414867,8.499438,8.584858,8.671138,8.758284,8.846306,8.935213,
9.025013,9.115716,9.207331,9.299866,9.393331,9.487736,9.583089,9.679401,9.776680,9.874938,9.974182,10.074425,10.175674,10.277942,10.381237,10.485570,10.590951,10.697392,10.804903,10.913494,
11.023176,11.133961,11.245859,11.358882,11.473041,11.588347,11.704812,11.822447,11.941264,12.061276,12.182494,12.304930,12.428597,12.553506,12.679671,12.807104,12.935817,13.065824,13.197138,13.329772


#ifdef _MIPS_
};
static FLOAT exponential8[] = {
#else
,
#endif

13.463738,13.599051,13.735724,13.873770,14.013204,14.154039,14.296289,14.439969,14.585093,14.731676,14.879732,15.029276,15.180322,15.332887,15.486985,15.642632,15.799843,15.958634,16.119021,16.281020,
16.444647,16.609918,16.776851,16.945461,17.115766,17.287782,17.461527,17.637018,17.814273,17.993310,18.174145,18.356799,18.541287,18.727630,18.915846,19.105954,19.297972,19.491920,19.687817,19.885682,
20.085537,20.287400,20.491292,20.697233,20.905243,21.115344,21.327557,21.541903,21.758402,21.977078,22.197951,22.421044,22.646380,22.873980,23.103867,23.336065,23.570596,23.807484,24.046754,24.288427,
24.532530,24.779086,25.028120,25.279657,25.533722,25.790340,26.049537,26.311339,26.575773,26.842864,27.112639,27.385125,27.660351,27.938342,28.219127,28.502734,28.789191,29.078527,29.370771,29.665952,
29.964100,30.265244,30.569415,30.876643,31.186958,31.500392,31.816977,32.136742,32.459722,32.785948,33.115452,33.448268,33.784428,34.123968,34.466919,34.813317,35.163197,35.516593,35.873541,36.234076,
36.598234,36.966053,37.337568,37.712817,38.091837,38.474666,38.861343,39.251906,39.646394,40.044847,40.447304,40.853807,41.264394,41.679108,42.097990,42.521082,42.948426,43.380065,43.816042,44.256400,
44.701184,45.150439,45.604208,46.062538,46.525474,46.993063,47.465351,47.942386,48.424215,48.910887,49.402449,49.898952,50.400445,50.906978,51.418601,51.935367,52.457326,52.984531,53.517034,54.054889,
54.598150,55.146871,55.701106,56.260911,56.826343,57.397457,57.974311,58.556963,59.145470,59.739892,60.340288,60.946718,61.559242,62.177923,62.802821,63.434000,64.071523,64.715452,65.365853,66.022791,
66.686331,67.356540,68.033484,68.717232,69.407852,70.105412,70.809983,71.521636,72.240440,72.966468,73.699794,74.440489,75.188628,75.944287,76.707539,77.478463,78.257134,79.043632,79.838033,80.640419


#ifdef _MIPS_
};
static FLOAT exponential9[] = {
#else
,
#endif

81.450869,82.269464,83.096285,83.931417,84.774942,85.626944,86.487509,87.356723,88.234673,89.121446,90.017131,90.921819,91.835598,92.758561,93.690800,94.632408,95.583480,96.544110,97.514394,98.494430,
99.484316,100.484150,101.494032,102.514064,103.544348,104.584986,105.636082,106.697742,107.770073,108.853180,109.947172,111.052160,112.168253,113.295562,114.434202,115.584285,116.745926,117.919242,119.104350,120.301369,
121.510418,122.731618,123.965091,125.210961,126.469352,127.740390,129.024202,130.320917,131.630664,132.953574,134.289780,135.639414,137.002613,138.379512,139.770250,141.174964,142.593796,144.026887,145.474382,146.936423,
148.413159,149.904736,151.411304,152.933013,154.470015,156.022464,157.590516,159.174327,160.774056,162.389862,164.021907,165.670355,167.335370,169.017118,170.715768,172.431490,174.164456,175.914837,177.682811,179.468553,
181.272242,183.094058,184.934184,186.792804,188.670102,190.566268,192.481491,194.415962,196.369875,198.343425,200.336810,202.350228,204.383882,206.437974,208.512710,210.608298,212.724946,214.862868,217.022275,219.203386,
221.406416,223.631588,225.879123,228.149245,230.442183,232.758166,235.097424,237.460193,239.846707,242.257207,244.691932,247.151127,249.635037,252.143911,254.677999,257.237556,259.822836,262.434099,265.071606,267.735620,
270.426407,273.144238,275.889383,278.662118,281.462718,284.291466,287.148643,290.034534,292.949430,295.893621,298.867401,301.871068,304.904923,307.969268,311.064411,314.190660,317.348329,320.537733,323.759190,327.013024,
330.299560,333.619126,336.972054,340.358679,343.779341,347.234380,350.724144,354.248980,357.809242,361.405284,365.037468,368.706155,372.411714,376.154514,379.934930,383.753339,387.610124,391.505671,395.440368,399.414610,
403.428793,407.483320,411.578596,415.715029,419.893035,424.113030,428.375437,432.680682,437.029195,441.421411,445.857770,450.338715,454.864694,459.436161,464.053571,468.717387,473.428075,478.186106,482.991956,487.846106


#ifdef _MIPS_
};
static FLOAT exponentialA[] = {
#else
,
#endif

492.749041,497.701251,502.703232,507.755483,512.858511,518.012825,523.218940,528.477378,533.788664,539.153329,544.571910,550.044949,555.572992,561.156594,566.796311,572.492709,578.246356,584.057829,589.927708,595.856580,
601.845038,607.893681,614.003114,620.173948,626.406800,632.702293,639.061057,645.483727,651.970946,658.523363,665.141633,671.826418,678.578385,685.398211,692.286578,699.244174,706.271695,713.369843,720.539329,727.780870,
735.095189,742.483019,749.945097,757.482171,765.094993,772.784326,780.550937,788.395604,796.319112,804.322252,812.405825,820.570639,828.817511,837.147266,845.560736,854.058763,862.642196,871.311894,880.068724,888.913562,
897.847292,906.870807,915.985010,925.190812,934.489135,943.880907,953.367067,962.948566,972.626360,982.401417,992.274716,1002.247242,1012.319995,1022.493980,1032.770215,1043.149728,1053.633557,1064.222751,1074.918367,1085.721476,
1096.633158,1107.654505,1118.786618,1130.030610,1141.387607,1152.858743,1164.445166,1176.148034,1187.968519,1199.907801,1211.967074,1224.147546,1236.450433,1248.876967,1261.428389,1274.105955,1286.910933,1299.844603,1312.908258,1326.103206,
1339.430764,1352.892267,1366.489061,1380.222504,1394.093971,1408.104848,1422.256537,1436.550453,1450.988025,1465.570697,1480.299928,1495.177189,1510.203970,1525.381772,1540.712114,1556.196528,1571.836563,1587.633783,1603.589768,1619.706113,
1635.984430,1652.426347,1669.033508,1685.807573,1702.750221,1719.863145,1737.148057,1754.606686,1772.240776,1790.052092,1808.042414,1826.213543,1844.567294,1863.105504,1881.830025,1900.742731,1919.845513,1939.140282,1958.628965,1978.313514,
1998.195895,2018.278098,2038.562130,2059.050020,2079.743817,2100.645589,2121.757429,2143.081445,2164.619772,2186.374562,2208.347992,2230.542258,2252.959581,2275.602201,2298.472383,2321.572415,2344.904605,2368.471288,2392.274821,2416.317582,
2440.601978,2465.130435,2489.905408,2514.929373,2540.204834,2565.734317,2591.520375,2617.565588,2643.872560,2670.443921,2697.282328,2724.390466,2751.771046,2779.426805,2807.360508,2835.574950,2864.072953,2892.857364,2921.931064,2951.296959


#ifdef _MIPS_
};
static FLOAT exponentialB[] = {
#else
,
#endif

2980.957987,3010.917113,3041.177333,3071.741673,3102.613190,3133.794971,3165.290134,3197.101829,3229.233237,3261.687570,3294.468075,3327.578030,3361.020745,3394.799565,3428.917868,3463.379065,3498.186604,3533.343964,3568.854661,3604.722246,
3640.950307,3677.542466,3714.502383,3751.833752,3789.540308,3827.625821,3866.094100,3904.948992,3944.194382,3983.834195,4023.872394,4064.312984,4105.160008,4146.417552,4188.089741,4230.180743,4272.694766,4315.636063,4359.008926,4402.817694,
4447.066748,4491.760512,4536.903455,4582.500093,4628.554985,4675.072736,4722.057998,4769.515469,4817.449897,4865.866073,4914.768840,4964.163088,5014.053757,5064.445835,5115.344362,5166.754427,5218.681172,5271.129790,5324.105525,5377.613675,
5431.659591,5486.248678,5541.386394,5597.078253,5653.329824,5710.146734,5767.534663,5825.499350,5884.046591,5943.182243,6002.912217,6063.242488,6124.179088,6185.728111,6247.895712,6310.688108,6374.111578,6438.172464,6502.877173,6568.232175,
6634.244006,6700.919267,6768.264625,6836.286816,6904.992640,6974.388970,7044.482745,7115.280973,7186.790736,7259.019183,7331.973539,7405.661098,7480.089230,7555.265376,7631.197056,7707.891861,7785.357462,7863.601605,7942.632116,8022.456895,
8103.083928,8184.521275,8266.777081,8349.859572,8433.777056,8518.537925,8604.150654,8690.623806,8777.966027,8866.186052,8955.292703,9045.294891,9136.201616,9228.021969,9320.765132,9414.440379,9509.057078,9604.624690,9701.152773,9798.650979,
9897.129059,9996.596859,10097.064328,10198.541512,10301.038558,10404.565717,10509.133340,10614.751886,10721.431916,10829.184099,10938.019208,11047.948129,11158.981853,11271.131486,11384.408240,11498.823445,11614.388542,11731.115087,11849.014754,11968.099332,
12088.380730,12209.870976,12332.582220,12456.526732,12581.716907,12708.165264,12835.884448,12964.887231,13095.186514,13226.795327,13359.726830,13493.994316,13629.611214,13766.591084,13904.947625,14044.694671,14185.846200,14328.416324,14472.419302,14617.869534,
14764.781566,14913.170087,15063.049938,15214.436107,15367.343732,15521.788104,15677.784668,15835.349024,15994.496927,16155.244294,16317.607198,16481.601877,16647.244729,16814.552320,16983.541381,17154.228809,17326.631675,17500.767218,17676.652853,17854.306168


#ifdef _MIPS_
};
static FLOAT exponentialC[] = {
#else
,
#endif

18033.744928,18214.987078,18398.050741,18582.954225,18769.716020,18958.354802,19148.889435,19341.338974,19535.722662,19732.059939,19930.370438,20130.673991,20332.990628,20537.340581,20743.744286,20952.222382,21162.795717,21375.485350,21590.312550,21807.298798
};
///// end of table-driven exp function
#endif